…
```r
source("https://raw.githubusercontent.com/vinayudyawer/seasnake-wigglecounter/refs/heads/main/wiggle_counter.R")
```


Input example dive data

```r
track_dat <- read_csv("https://raw.githubusercontent.com/vinayudyawer/seasnake-wigglecounter/refs/heads/main/example_dive_data.csv")

## lets have a look at the data
track_dat

# # A tibble: 29,199 × 5
#    tag_id  date_time           dive_id dive_phase depth
#    <chr>   <dttm>                <dbl> <chr>      <dbl>
#  1 Snake_1 2023-06-09 00:00:01       0 X            0  
#  2 Snake_1 2023-06-09 00:00:03       0 X            0  
#  3 Snake_1 2023-06-09 00:00:05       0 X            0  
#  4 Snake_1 2023-06-09 00:00:07       0 X            0  
#  5 Snake_1 2023-06-09 00:00:09       0 X            0  
#  6 Snake_1 2023-06-09 00:00:11       0 X           -0.2
#  7 Snake_1 2023-06-09 00:00:13       0 X            0  
#  8 Snake_1 2023-06-09 00:00:15       0 X            0  
#  9 Snake_1 2023-06-09 00:00:17       0 X            0  
# 10 Snake_1 2023-06-09 00:00:19       0 X            0  
# # ℹ 29,189 more rows
# # ℹ Use `print(n = ...)` to see more rows
…
